^C:\USERS\RBROWNE\DOCUMENTS\VISUAL STUDIO 2010\PROJECTS\SPBACKUPTOOL\CLAIMSAUTH\PROPERTIES\RESOURCES.RESX
C:\WINDOWS\MICROSOFT.NET\FRAMEWORK\V2.0.50727\MSCORWKS.DLL
C:\WINDOWS\MICROSOFT.NET\FRAMEWORK\V4.0.30319\CLR.DLL
C:\PROGRAM FILES\MICROSOFT SDKS\WINDOWS\V7.0A\BIN\RESGEN.EXE.CONFIG
C:\PROGRAM FILES\MICROSOFT SDKS\WINDOWS\V7.0A\BIN\RESGEN.EXE
C:\WINDOWS\MICROSOFT.NET\FRAMEWORK\V2.0.50727\CONFIG\MACHINE.CONFIG
C:\WINDOWS\MICROSOFT.NET\FRAMEWORK\V2.0.50727\CONFIG\SECURITY.CONFIG
C:\WINDOWS\MICROSOFT.NET\FRAMEWORK\V2.0.50727\CONFIG\SECURITY.CONFIG.CCH
C:\WINDOWS\MICROSOFT.NET\FRAMEWORK\V2.0.50727\CONFIG\ENTERPRISESEC.CONFIG
C:\WINDOWS\MICROSOFT.NET\FRAMEWORK\V2.0.50727\CONFIG\ENTERPRISESEC.CONFIG.CCH
C:\WINDOWS\GLOBALIZATION\SORTING\SORTDEFAULT.NLS
C:\WINDOWS\ASSEMBLY\NATIVEIMAGES_V2.0.50727_32\INDEX23D5.DAT
C:\WINDOWS\SYSTEM32\L_INTL.NLS
C:\WINDOWS\ASSEMBLY\PUBPOL98.DAT
C:\WINDOWS\ASSEMBLY\GAC_32\MSCORLIB\2.0.0.0__B77A5C561934E089\SORTTBLS.NLP
C:\WINDOWS\ASSEMBLY\GAC_32\MSCORLIB\2.0.0.0__B77A5C561934E089\SORTKEY.NLP
C:\PROGRAM FILES\COMMON FILES\MICROSOFT SHARED\SHAREPOINT CLIENT\MICROSOFT.SHAREPOINT.CLIENT.DLL
C:\WINDOWS\SYSTEM32\RSAENH.DLL
C:\PROGRAM FILES\COMMON FILES\MICROSOFT SHARED\SHAREPOINT CLIENT\MICROSOFT.SHAREPOINT.CLIENT.RUNTIME.DLL
C:\PROGRAM FILES\REFERENCE ASSEMBLIES\MICROSOFT\FRAMEWORK\V3.5\SYSTEM.CORE.DLL
C:\PROGRAM FILES\REFERENCE ASSEMBLIES\MICROSOFT\FRAMEWORK\V3.5\SYSTEM.DATA.DATASETEXTENSIONS.DLL
C:\WINDOWS\MICROSOFT.NET\FRAMEWORK\V2.0.50727\SYSTEM.DATA.DLL
C:\WINDOWS\MICROSOFT.NET\FRAMEWORK\V2.0.50727\SYSTEM.DEPLOYMENT.DLL
C:\WINDOWS\MICROSOFT.NET\FRAMEWORK\V2.0.50727\SYSTEM.DLL
C:\WINDOWS\MICROSOFT.NET\FRAMEWORK\V2.0.50727\SYSTEM.DRAWING.DLL
C:\WINDOWS\MICROSOFT.NET\FRAMEWORK\V2.0.50727\SYSTEM.ENTERPRISESERVICES.DLL
C:\PROGRAM FILES\REFERENCE ASSEMBLIES\MICROSOFT\FRAMEWORK\V3.5\SYSTEM.NET.DLL
C:\WINDOWS\MICROSOFT.NET\FRAMEWORK\V2.0.50727\SYSTEM.WEB.SERVICES.DLL
C:\WINDOWS\MICROSOFT.NET\FRAMEWORK\V2.0.50727\SYSTEM.WINDOWS.FORMS.DLL
C:\WINDOWS\MICROSOFT.NET\FRAMEWORK\V2.0.50727\SYSTEM.XML.DLL
C:\PROGRAM FILES\REFERENCE ASSEMBLIES\MICROSOFT\FRAMEWORK\V3.5\SYSTEM.XML.LINQ.DLL
