^C:\USERS\RBROWNE\DOCUMENTS\VISUAL STUDIO 2010\PROJECTS\SPBACKUPTOOL\SPBACKUPTOOL\FORM1.RESX|C:\USERS\RBROWNE\DOCUMENTS\VISUAL STUDIO 2010\PROJECTS\SPBACKUPTOOL\SPBACKUPTOOL\PROPERTIES\RESOURCES.RESX
C:\USERS\RBROWNE\DOCUMENTS\VISUAL STUDIO 2010\PROJECTS\SPBACKUPTOOL\SPBACKUPTOOL\OBJ\X86\DEBUG\SPBACKUPTOOL.FORM1.RESOURCES
C:\USERS\RBROWNE\DOCUMENTS\VISUAL STUDIO 2010\PROJECTS\SPBACKUPTOOL\SPBACKUPTOOL\OBJ\X86\DEBUG\SPBACKUPTOOL.PROPERTIES.RESOURCES.RESOURCES
^C:\USERS\RBROWNE\DOCUMENTS\VISUAL STUDIO 2010\PROJECTS\SPBACKUPTOOL\SPBACKUPTOOL\BACKUPUTILITY.RESX|C:\USERS\RBROWNE\DOCUMENTS\VISUAL STUDIO 2010\PROJECTS\SPBACKUPTOOL\SPBACKUPTOOL\COPYUTILITY.RESX|C:\USERS\RBROWNE\DOCUMENTS\VISUAL STUDIO 2010\PROJECTS\SPBACKUPTOOL\SPBACKUPTOOL\PROPERTIES\RESOURCES.RESX
C:\USERS\RBROWNE\DOCUMENTS\VISUAL STUDIO 2010\PROJECTS\SPBACKUPTOOL\SPBACKUPTOOL\OBJ\X86\DEBUG\SPBACKUPTOOL.BACKUPUTILITY.RESOURCES
C:\USERS\RBROWNE\DOCUMENTS\VISUAL STUDIO 2010\PROJECTS\SPBACKUPTOOL\SPBACKUPTOOL\OBJ\X86\DEBUG\SPBACKUPTOOL.COPYUTILITY.RESOURCES
C:\USERS\RBROWNE\DOCUMENTS\VISUAL STUDIO 2010\PROJECTS\SPBACKUPTOOL\SPBACKUPTOOL\OBJ\X86\DEBUG\SPBACKUPTOOL.PROPERTIES.RESOURCES.RESOURCES
^C:\USERS\RBROWNE\DOCUMENTS\VISUAL STUDIO 2010\PROJECTS\SPBACKUPTOOL\SPBACKUPTOOL\BACKUPUTILITY.RESX|C:\USERS\RBROWNE\DOCUMENTS\VISUAL STUDIO 2010\PROJECTS\SPBACKUPTOOL\SPBACKUPTOOL\PROPERTIES\RESOURCES.RESX
C:\USERS\RBROWNE\DOCUMENTS\VISUAL STUDIO 2010\PROJECTS\SPBACKUPTOOL\SPBACKUPTOOL\OBJ\X86\DEBUG\SPBACKUPTOOL.BACKUPUTILITY.RESOURCES
C:\USERS\RBROWNE\DOCUMENTS\VISUAL STUDIO 2010\PROJECTS\SPBACKUPTOOL\SPBACKUPTOOL\OBJ\X86\DEBUG\SPBACKUPTOOL.PROPERTIES.RESOURCES.RESOURCES
^C:\USERS\RBROWNE\DOCUMENTS\VISUAL STUDIO 2010\PROJECTS\SPBACKUPTOOL\SPBACKUPTOOL\ABOUTBOX1.RESX|C:\USERS\RBROWNE\DOCUMENTS\VISUAL STUDIO 2010\PROJECTS\SPBACKUPTOOL\SPBACKUPTOOL\BACKUPUTILITY.RESX|C:\USERS\RBROWNE\DOCUMENTS\VISUAL STUDIO 2010\PROJECTS\SPBACKUPTOOL\SPBACKUPTOOL\PROPERTIES\RESOURCES.RESX
C:\USERS\RBROWNE\DOCUMENTS\VISUAL STUDIO 2010\PROJECTS\SPBACKUPTOOL\SPBACKUPTOOL\OBJ\X86\DEBUG\SPBACKUPTOOL.ABOUTBOX1.RESOURCES
C:\USERS\RBROWNE\DOCUMENTS\VISUAL STUDIO 2010\PROJECTS\SPBACKUPTOOL\SPBACKUPTOOL\OBJ\X86\DEBUG\SPBACKUPTOOL.BACKUPUTILITY.RESOURCES
C:\USERS\RBROWNE\DOCUMENTS\VISUAL STUDIO 2010\PROJECTS\SPBACKUPTOOL\SPBACKUPTOOL\OBJ\X86\DEBUG\SPBACKUPTOOL.PROPERTIES.RESOURCES.RESOURCES
